Welcome
  _    _       _ _     _               ______      _                 
 | |  | |     | (_)   | |             |  ____|    | |                
 | |__| | ___ | |_  __| | __ _ _   _  | |__  __  _| |_ _ __ __ _ ___ 
 |  __  |/ _ \| | |/ _` |/ _` | | | | |  __| \ \/ / __| '__/ _` / __|
 | |  | | (_) | | | (_| | (_| | |_| | | |____ >  <| |_| | | (_| \__ \
 |_|  |_|\___/|_|_|\__,_|\__,_|\__, | |______/_/\_\\__|_|  \__,_|___/
                                __/ |                                
                               |___/                                 